{
  "spellScriptDirectory": "scripts/spells/",
  "spellBookConfigFile": "config/spells/spells.json",
  "characterConfigFiles":
  [
    { "characterConfigFile": "config/chars/halo_goo.json", "teamId": 1 },
    { "characterConfigFile": "config/chars/yuck_face.json", "teamId": 2 }
  ],
  "floorSizeInPixels": 800,
  "windowSizeInPixels":
  {
    "width": 1920,
    "height": 1080
  }
}